top_module_tb.vcd
$date
	Fri Jun 13 12:13:49 2025
$end
$version
	Icarus Verilog
$end
$timescale
	1ps
$end
$scope module top_module_tb $end
$var wire 7 ! seg_b [6:0] $end
$var wire 7 " seg_a [6:0] $end
$var wire 2 # led [1:0] $end
$var reg 1 $ clk $end
$var reg 1 % en $end
$var reg 1 & rst_n $end
$scope module uut $end
$var wire 1 $ clk $end
$var wire 1 % en $end
$var wire 1 & rst_n $end
$var wire 6 ' timer_value [5:0] $end
$var wire 7 ( seg_b [6:0] $end
$var wire 7 ) seg_a [6:0] $end
$var wire 2 * led [1:0] $end
$var wire 6 + counter_value [5:0] $end
$scope module cnt $end
$var wire 1 $ clk $end
$var wire 1 & rst_n $end
$var wire 6 , timer_value [5:0] $end
$var reg 6 - counter_value [5:0] $end
$var reg 6 . prev_timer_value [5:0] $end
$upscope $end
$scope module fsm $end
$var wire 1 $ clk $end
$var wire 1 & rst_n $end
$var parameter 2 / S_GREEN $end
$var parameter 2 0 S_RED $end
$var parameter 2 1 S_YELLOW $end
$var reg 5 2 counter [4:0] $end
$var reg 2 3 led [1:0] $end
$var reg 2 4 state [1:0] $end
$var reg 6 5 timer_value [5:0] $end
$upscope $end
$scope module seg_disp $end
$var wire 6 6 count_value [5:0] $end
$var wire 7 7 seg_b [6:0] $end
$var wire 7 8 seg_a [6:0] $end
$var wire 4 9 digit_b [3:0] $end
$var wire 4 : digit_a [3:0] $end
$scope module dis_a $end
$var wire 4 ; value [3:0] $end
$var reg 7 < seg [6:0] $end
$upscope $end
$scope module dis_b $end
$var wire 4 = value [3:0] $end
$var reg 7 > seg [6:0] $end
$upscope $end
$upscope $end
$upscope $end
$upscope $end
$enddefinitions $end
$comment Show the parameter values. $end
$dumpall
b10 1
b0 0
b1 /
$end
#0
$dumpvars
b1111110 >
b0 =
b1111110 <
b0 ;
b0 :
b0 9
b1111110 8
b1111110 7
b0 6
b10010 5
b0 4
b0 3
b0 2
bx .
b0 -
b10010 ,
b0 +
b0 *
b1111110 )
b1111110 (
b10010 '
0&
0%
0$
b0 #
b1111110 "
b1111110 !
$end
#500
1$
#1000
0$
#1500
1$
#2000
b110000 "
b110000 )
b110000 8
b110000 <
b1110000 !
b1110000 (
b1110000 7
b1110000 >
b1 :
b1 ;
b111 9
b111 =
b10010 .
b10001 +
b10001 -
b10001 6
b1 2
0$
1%
1&
#2500
1$
#3000
b10 2
0$
#3500
1$
#4000
b11 2
0$
#4500
1$
#5000
b100 2
0$
#5500
1$
#6000
b101 2
0$
#6500
1$
#7000
b110 2
0$
#7500
1$
#8000
b111 2
0$
#8500
1$
#9000
b1000 2
0$
#9500
1$
#10000
b1001 2
0$
#10500
1$
#11000
b1010 2
0$
#11500
1$
#12000
b1011 2
0$
#12500
1$
#13000
b1100 2
0$
#13500
1$
#14000
b1101 2
0$
#14500
1$
#15000
b1110 2
0$
#15500
1$
#16000
b1111 2
0$
#16500
1$
#17000
b10000 2
0$
#17500
1$
#18000
b10001 2
0$
#18500
1$
#19000
b0 2
b1 4
0$
#19500
1$
#20000
b110011 !
b110011 (
b110011 7
b110011 >
b100 9
b100 =
b1111 .
b1110 +
b1110 -
b1110 6
b1 2
b1111 '
b1111 ,
b1111 5
b1 #
b1 *
b1 3
0$
#20500
1$
#21000
b10 2
0$
#21500
1$
#22000
b11 2
0$
#22500
1$
#23000
b100 2
0$
#23500
1$
#24000
b101 2
0$
#24500
1$
#25000
b110 2
0$
#25500
1$
#26000
b111 2
0$
#26500
1$
#27000
b1000 2
0$
#27500
1$
#28000
b1001 2
0$
#28500
1$
#29000
b1010 2
0$
#29500
1$
#30000
b1011 2
0$
#30500
1$
#31000
b1100 2
0$
#31500
1$
#32000
b1101 2
0$
#32500
1$
#33000
b1110 2
0$
#33500
1$
#34000
b0 2
b10 4
0$
#34500
1$
#35000
b1111110 "
b1111110 )
b1111110 8
b1111110 <
b1101101 !
b1101101 (
b1101101 7
b1101101 >
b0 :
b0 ;
b10 9
b10 =
b11 .
b10 +
b10 -
b10 6
b1 2
b11 '
b11 ,
b11 5
b10 #
b10 *
b10 3
0$
#35500
1$
#36000
b10 2
0$
#36500
1$
#37000
b0 2
b0 4
0$
#37500
1$
#38000
b110000 "
b110000 )
b110000 8
b110000 <
b1110000 !
b1110000 (
b1110000 7
b1110000 >
b1 :
b1 ;
b111 9
b111 =
b10010 .
b10001 +
b10001 -
b10001 6
b1 2
b10010 '
b10010 ,
b10010 5
b0 #
b0 *
b0 3
0$
#38500
1$
#39000
b10 2
0$
#39500
1$
#40000
b11 2
0$
#40500
1$
#41000
b100 2
0$
#41500
1$
#42000
b101 2
0$
0%
#42500
1$
#43000
b110 2
0$
#43500
1$
#44000
b111 2
0$
#44500
1$
#45000
b1000 2
0$
#45500
1$
#46000
b1001 2
0$
#46500
1$
#47000
b1010 2
0$
#47500
1$
#48000
b1011 2
0$
#48500
1$
#49000
b1100 2
0$
#49500
1$
#50000
b1101 2
0$
#50500
1$
#51000
b1110 2
0$
#51500
1$
#52000
b1111 2
0$
