top_module_tb.vcd
$date
	Fri Jun 13 13:46:13 2025
$end
$version
	Icarus Verilog
$end
$timescale
	1ps
$end
$scope module top_module_tb $end
$var wire 7 ! seg_b [6:0] $end
$var wire 7 " seg_a [6:0] $end
$var wire 2 # led [1:0] $end
$var reg 1 $ clk $end
$var reg 1 % en $end
$var reg 1 & rst_n $end
$scope module uut $end
$var wire 1 $ clk $end
$var wire 1 % en $end
$var wire 1 & rst_n $end
$var wire 6 ' timer_value [5:0] $end
$var wire 7 ( seg_b [6:0] $end
$var wire 7 ) seg_a [6:0] $end
$var wire 2 * led [1:0] $end
$var wire 6 + counter_value [5:0] $end
$scope module cnt $end
$var wire 1 $ clk $end
$var wire 1 & rst_n $end
$var wire 6 , timer_value [5:0] $end
$var reg 6 - counter_value [5:0] $end
$var reg 6 . prev_timer_value [5:0] $end
$upscope $end
$scope module fsm $end
$var wire 1 $ clk $end
$var wire 1 & rst_n $end
$var parameter 2 / S_GREEN $end
$var parameter 2 0 S_RED $end
$var parameter 2 1 S_YELLOW $end
$var reg 5 2 counter [4:0] $end
$var reg 2 3 led [1:0] $end
$var reg 2 4 state [1:0] $end
$var reg 6 5 timer_value [5:0] $end
$upscope $end
$scope module seg_disp $end
$var wire 6 6 count_value [5:0] $end
$var wire 7 7 seg_b [6:0] $end
$var wire 7 8 seg_a [6:0] $end
$var wire 4 9 digit_b [3:0] $end
$var wire 4 : digit_a [3:0] $end
$scope module dis_a $end
$var wire 4 ; value [3:0] $end
$var reg 7 < seg [6:0] $end
$upscope $end
$scope module dis_b $end
$var wire 4 = value [3:0] $end
$var reg 7 > seg [6:0] $end
$upscope $end
$upscope $end
$upscope $end
$upscope $end
$enddefinitions $end
$comment Show the parameter values. $end
$dumpall
b10 1
b0 0
b1 /
$end
#0
$dumpvars
b1111111 >
b1000 =
b110000 <
b1 ;
b1 :
b1000 9
b110000 8
b1111111 7
b10010 6
b10010 5
b0 4
b0 3
b10010 2
bx .
b0 -
b10010 ,
b0 +
b0 *
b110000 )
b1111111 (
b10010 '
0&
0%
0$
b0 #
b110000 "
b1111111 !
$end
#500
1$
#1000
0$
#1500
1$
#2000
0$
1%
1&
#2500
b10010 .
b10010 +
b10010 -
b10001 2
1$
#3000
0$
#3500
b1110000 !
b1110000 (
b1110000 7
b1110000 >
b111 9
b111 =
b10001 '
b10001 ,
b10001 5
b10001 6
b10000 2
1$
#4000
0$
#4500
b1011111 !
b1011111 (
b1011111 7
b1011111 >
b110 9
b110 =
b10001 .
b10001 +
b10001 -
b10000 '
b10000 ,
b10000 5
b10000 6
b1111 2
1$
#5000
0$
#5500
b1011011 !
b1011011 (
b1011011 7
b1011011 >
b101 9
b101 =
b1111 '
b1111 ,
b1111 5
b1111 6
b1110 2
b10000 .
b10000 +
b10000 -
1$
#6000
0$
#6500
b110011 !
b110011 (
b110011 7
b110011 >
b100 9
b100 =
b1111 .
b1111 +
b1111 -
b1110 '
b1110 ,
b1110 5
b1110 6
b1101 2
1$
#7000
0$
#7500
b1111001 !
b1111001 (
b1111001 7
b1111001 >
b11 9
b11 =
b1101 '
b1101 ,
b1101 5
b1101 6
b1100 2
b1110 .
b1110 +
b1110 -
1$
#8000
0$
#8500
b1101101 !
b1101101 (
b1101101 7
b1101101 >
b10 9
b10 =
b1101 .
b1101 +
b1101 -
b1100 '
b1100 ,
b1100 5
b1100 6
b1011 2
1$
#9000
0$
#9500
b110000 !
b110000 (
b110000 7
b110000 >
b1 9
b1 =
b1011 '
b1011 ,
b1011 5
b1011 6
b1010 2
b1100 .
b1100 +
b1100 -
1$
#10000
0$
#10500
b1111110 !
b1111110 (
b1111110 7
b1111110 >
b0 9
b0 =
b1011 .
b1011 +
b1011 -
b1010 '
b1010 ,
b1010 5
b1010 6
b1001 2
1$
#11000
0$
#11500
b1111110 "
b1111110 )
b1111110 8
b1111110 <
b1111011 !
b1111011 (
b1111011 7
b1111011 >
b0 :
b0 ;
b1001 9
b1001 =
b1001 '
b1001 ,
b1001 5
b1001 6
b1000 2
b1010 .
b1010 +
b1010 -
1$
#12000
0$
#12500
b1111111 !
b1111111 (
b1111111 7
b1111111 >
b1000 9
b1000 =
b1001 .
b1001 +
b1001 -
b1000 '
b1000 ,
b1000 5
b1000 6
b111 2
1$
#13000
0$
#13500
b1110000 !
b1110000 (
b1110000 7
b1110000 >
b111 9
b111 =
b111 '
b111 ,
b111 5
b111 6
b110 2
b1000 .
b1000 +
b1000 -
1$
#14000
0$
#14500
b1011111 !
b1011111 (
b1011111 7
b1011111 >
b110 9
b110 =
b111 .
b111 +
b111 -
b110 '
b110 ,
b110 5
b110 6
b101 2
1$
#15000
0$
#15500
b1011011 !
b1011011 (
b1011011 7
b1011011 >
b101 9
b101 =
b101 '
b101 ,
b101 5
b101 6
b100 2
b110 .
b110 +
b110 -
1$
#16000
0$
#16500
b110011 !
b110011 (
b110011 7
b110011 >
b100 9
b100 =
b101 .
b101 +
b101 -
b100 '
b100 ,
b100 5
b100 6
b11 2
1$
#17000
0$
#17500
b1111001 !
b1111001 (
b1111001 7
b1111001 >
b11 9
b11 =
b11 '
b11 ,
b11 5
b11 6
b10 2
b100 .
b100 +
b100 -
1$
#18000
0$
#18500
b1101101 !
b1101101 (
b1101101 7
b1101101 >
b10 9
b10 =
b11 .
b11 +
b11 -
b10 '
b10 ,
b10 5
b10 6
b1 2
1$
#19000
0$
#19500
b110000 !
b110000 (
b110000 7
b110000 >
b1 9
b1 =
b1 '
b1 ,
b1 5
b1 6
b0 2
b10 .
b10 +
b10 -
1$
#20000
0$
#20500
b1111110 !
b1111110 (
b1111110 7
b1111110 >
b0 9
b0 =
b1 .
b1 +
b1 -
b0 '
b0 ,
b0 5
b0 6
b1111 2
b1 4
1$
#21000
0$
#21500
b110000 "
b110000 )
b110000 8
b110000 <
b1011011 !
b1011011 (
b1011011 7
b1011011 >
b1 :
b1 ;
b101 9
b101 =
b1111 '
b1111 ,
b1111 5
b1111 6
b1110 2
b1 #
b1 *
b1 3
b0 .
b0 +
b0 -
1$
#22000
0$
#22500
b110011 !
b110011 (
b110011 7
b110011 >
b100 9
b100 =
b1111 .
b1111 +
b1111 -
b1110 '
b1110 ,
b1110 5
b1110 6
b1101 2
1$
#23000
0$
#23500
b1111001 !
b1111001 (
b1111001 7
b1111001 >
b11 9
b11 =
b1101 '
b1101 ,
b1101 5
b1101 6
b1100 2
b1110 .
b1110 +
b1110 -
1$
#24000
0$
#24500
b1101101 !
b1101101 (
b1101101 7
b1101101 >
b10 9
b10 =
b1101 .
b1101 +
b1101 -
b1100 '
b1100 ,
b1100 5
b1100 6
b1011 2
1$
#25000
0$
#25500
b110000 !
b110000 (
b110000 7
b110000 >
b1 9
b1 =
b1011 '
b1011 ,
b1011 5
b1011 6
b1010 2
b1100 .
b1100 +
b1100 -
1$
#26000
0$
#26500
b1111110 !
b1111110 (
b1111110 7
b1111110 >
b0 9
b0 =
b1011 .
b1011 +
b1011 -
b1010 '
b1010 ,
b1010 5
b1010 6
b1001 2
1$
#27000
0$
#27500
b1111110 "
b1111110 )
b1111110 8
b1111110 <
b1111011 !
b1111011 (
b1111011 7
b1111011 >
b0 :
b0 ;
b1001 9
b1001 =
b1001 '
b1001 ,
b1001 5
b1001 6
b1000 2
b1010 .
b1010 +
b1010 -
1$
#28000
0$
#28500
b1111111 !
b1111111 (
b1111111 7
b1111111 >
b1000 9
b1000 =
b1001 .
b1001 +
b1001 -
b1000 '
b1000 ,
b1000 5
b1000 6
b111 2
1$
#29000
0$
#29500
b1110000 !
b1110000 (
b1110000 7
b1110000 >
b111 9
b111 =
b111 '
b111 ,
b111 5
b111 6
b110 2
b1000 .
b1000 +
b1000 -
1$
#30000
0$
#30500
b1011111 !
b1011111 (
b1011111 7
b1011111 >
b110 9
b110 =
b111 .
b111 +
b111 -
b110 '
b110 ,
b110 5
b110 6
b101 2
1$
#31000
0$
#31500
b1011011 !
b1011011 (
b1011011 7
b1011011 >
b101 9
b101 =
b101 '
b101 ,
b101 5
b101 6
b100 2
b110 .
b110 +
b110 -
1$
#32000
0$
#32500
b110011 !
b110011 (
b110011 7
b110011 >
b100 9
b100 =
b101 .
b101 +
b101 -
b100 '
b100 ,
b100 5
b100 6
b11 2
1$
#33000
0$
#33500
b1111001 !
b1111001 (
b1111001 7
b1111001 >
b11 9
b11 =
b11 '
b11 ,
b11 5
b11 6
b10 2
b100 .
b100 +
b100 -
1$
#34000
0$
#34500
b1101101 !
b1101101 (
b1101101 7
b1101101 >
b10 9
b10 =
b11 .
b11 +
b11 -
b10 '
b10 ,
b10 5
b10 6
b1 2
1$
#35000
0$
#35500
b110000 !
b110000 (
b110000 7
b110000 >
b1 9
b1 =
b1 '
b1 ,
b1 5
b1 6
b0 2
b10 .
b10 +
b10 -
1$
#36000
0$
#36500
b1111110 !
b1111110 (
b1111110 7
b1111110 >
b0 9
b0 =
b1 .
b1 +
b1 -
b0 '
b0 ,
b0 5
b0 6
b11 2
b10 4
1$
#37000
0$
#37500
b1111001 !
b1111001 (
b1111001 7
b1111001 >
b11 9
b11 =
b11 '
b11 ,
b11 5
b11 6
b10 2
b10 #
b10 *
b10 3
b0 .
b0 +
b0 -
1$
#38000
0$
#38500
b1101101 !
b1101101 (
b1101101 7
b1101101 >
b10 9
b10 =
b11 .
b11 +
b11 -
b10 '
b10 ,
b10 5
b10 6
b1 2
1$
#39000
0$
#39500
b110000 !
b110000 (
b110000 7
b110000 >
b1 9
b1 =
b1 '
b1 ,
b1 5
b1 6
b0 2
b10 .
b10 +
b10 -
1$
#40000
0$
#40500
b1111110 !
b1111110 (
b1111110 7
b1111110 >
b0 9
b0 =
b1 .
b1 +
b1 -
b0 '
b0 ,
b0 5
b0 6
b10010 2
b0 4
1$
#41000
0$
#41500
b110000 "
b110000 )
b110000 8
b110000 <
b1111111 !
b1111111 (
b1111111 7
b1111111 >
b1 :
b1 ;
b1000 9
b1000 =
b10010 '
b10010 ,
b10010 5
b10010 6
b10001 2
b0 #
b0 *
b0 3
b0 .
b0 +
b0 -
1$
#42000
0$
0%
#42500
b1110000 !
b1110000 (
b1110000 7
b1110000 >
b111 9
b111 =
b10010 .
b10010 +
b10010 -
b10001 '
b10001 ,
b10001 5
b10001 6
b10000 2
1$
#43000
0$
#43500
b1011111 !
b1011111 (
b1011111 7
b1011111 >
b110 9
b110 =
b10000 '
b10000 ,
b10000 5
b10000 6
b1111 2
b10001 .
b10001 +
b10001 -
1$
#44000
0$
#44500
b1011011 !
b1011011 (
b1011011 7
b1011011 >
b101 9
b101 =
b10000 .
b10000 +
b10000 -
b1111 '
b1111 ,
b1111 5
b1111 6
b1110 2
1$
#45000
0$
#45500
b110011 !
b110011 (
b110011 7
b110011 >
b100 9
b100 =
b1110 '
b1110 ,
b1110 5
b1110 6
b1101 2
b1111 .
b1111 +
b1111 -
1$
#46000
0$
#46500
b1111001 !
b1111001 (
b1111001 7
b1111001 >
b11 9
b11 =
b1110 .
b1110 +
b1110 -
b1101 '
b1101 ,
b1101 5
b1101 6
b1100 2
1$
#47000
0$
#47500
b1101101 !
b1101101 (
b1101101 7
b1101101 >
b10 9
b10 =
b1100 '
b1100 ,
b1100 5
b1100 6
b1011 2
b1101 .
b1101 +
b1101 -
1$
#48000
0$
#48500
b110000 !
b110000 (
b110000 7
b110000 >
b1 9
b1 =
b1100 .
b1100 +
b1100 -
b1011 '
b1011 ,
b1011 5
b1011 6
b1010 2
1$
#49000
0$
#49500
b1111110 !
b1111110 (
b1111110 7
b1111110 >
b0 9
b0 =
b1010 '
b1010 ,
b1010 5
b1010 6
b1001 2
b1011 .
b1011 +
b1011 -
1$
#50000
0$
#50500
b1111110 "
b1111110 )
b1111110 8
b1111110 <
b1111011 !
b1111011 (
b1111011 7
b1111011 >
b0 :
b0 ;
b1001 9
b1001 =
b1010 .
b1010 +
b1010 -
b1001 '
b1001 ,
b1001 5
b1001 6
b1000 2
1$
#51000
0$
#51500
b1111111 !
b1111111 (
b1111111 7
b1111111 >
b1000 9
b1000 =
b1000 '
b1000 ,
b1000 5
b1000 6
b111 2
b1001 .
b1001 +
b1001 -
1$
